<?xml version="1.0" encoding="UTF-8"?>
<svg xmlns="http://www.w3.org/2000/svg" width="101" height="20">
    <linearGradient id="b" x2="0" y2="100%">
        <stop offset="0" stop-color="#bbb" stop-opacity=".1"/>
        <stop offset="1" stop-opacity=".1"/>
    </linearGradient>
    <mask id="anybadge_1">
        <rect width="101" height="20" rx="3" fill="#fff"/>
    </mask>
    <g mask="url(#anybadge_1)">
        <path fill="#555" d="M0 0h34v20H0z"/>
        <path fill="#cce000" d="M34 0h67v20H34z"/>
        <path fill="url(#b)" d="M0 0h101v20H0z"/>
    </g>
    <g fill="#fff" text-anchor="middle" font-family="DejaVu Sans,Verdana,Geneva,sans-serif" font-size="11">
        <text x="18.0" y="15" fill="#010101" fill-opacity=".3">BGS</text>
        <text x="17.0" y="14">BGS</text>
    </g>
    <g fill="#fff" text-anchor="middle" font-family="DejaVu Sans,Verdana,Geneva,sans-serif" font-size="11">
        <text x="68.5" y="15" fill="#010101" fill-opacity=".3">54.5446%</text>
        <text x="67.5" y="14">54.5446%</text>
    </g>
</svg>